{
    "$schema": "https://schema.management.azure.com/schemas/2015-01-01/deploymentParameters.json#",
    "contentVersion": "1.0.0.0",
    "parameters": {
        "storageAccounts_csg10032000eb859b91_name": {
            "value":"csg1003200eb8591rahul"
        }
    }
}
